<?xml version="1.0" encoding="UTF-8" standalone="no"?>
<svg
   xmlns:dc="http://purl.org/dc/elements/1.1/"
   xmlns:cc="http://creativecommons.org/ns#"
   xmlns:rdf="http://www.w3.org/1999/02/22-rdf-syntax-ns#"
   xmlns:svg="http://www.w3.org/2000/svg"
   xmlns="http://www.w3.org/2000/svg"
   xmlns:sodipodi="http://sodipodi.sourceforge.net/DTD/sodipodi-0.dtd"
   xmlns:inkscape="http://www.inkscape.org/namespaces/inkscape"
   viewBox="0 0 270 100"
   version="1.1"
   id="svg406"
   sodipodi:docname="main-background.svg"
   inkscape:version="1.0.1 (0767f8302a, 2020-10-17)">
  <metadata
     id="metadata412">
    <rdf:RDF>
      <cc:Work
         rdf:about="">
        <dc:format>image/svg+xml</dc:format>
        <dc:type
           rdf:resource="http://purl.org/dc/dcmitype/StillImage" />
      </cc:Work>
    </rdf:RDF>
  </metadata>
  <defs
     id="defs410" />
  <sodipodi:namedview
     pagecolor="#ffffff"
     bordercolor="#666666"
     borderopacity="1"
     objecttolerance="10"
     gridtolerance="10"
     guidetolerance="10"
     inkscape:pageopacity="0"
     inkscape:pageshadow="2"
     inkscape:window-width="1240"
     inkscape:window-height="656"
     id="namedview408"
     showgrid="false"
     inkscape:zoom="3.8555556"
     inkscape:cx="135"
     inkscape:cy="50"
     inkscape:window-x="40"
     inkscape:window-y="27"
     inkscape:window-maximized="1"
     inkscape:current-layer="svg406" />
  <g
     transform="matrix(.3 0 0 .3 175 48)"
     id="g10">
    <circle
       cy="-15"
       r="10"
       fill="#f44333"
       id="circle4" />
    <g
       stroke="#f44333"
       stroke-linecap="round"
       stroke-width="4"
       id="g8">
      <path
         d="M0-15v30M0 0l15-5M0 0l-15-5M0 15l15 15M0 15l-15 15"
         id="path6" />
    </g>
  </g>
  <g
     transform="matrix(.3 0 0 .3 155 82.641)"
     id="g18">
    <circle
       cy="-15"
       r="10"
       fill="#f44333"
       id="circle12" />
    <g
       stroke="#f44333"
       stroke-linecap="round"
       stroke-width="4"
       id="g16">
      <path
         d="M0-15v30M0 0l15-5M0 0l-15-5M0 15l15 15M0 15l-15 15"
         id="path14" />
    </g>
  </g>
  <g
     transform="matrix(.3 0 0 .3 115 82.641)"
     id="g26">
    <circle
       cy="-15"
       r="10"
       fill="#f44333"
       id="circle20" />
    <g
       stroke="#f44333"
       stroke-linecap="round"
       stroke-width="4"
       id="g24">
      <path
         d="M0-15v30M0 0l15-5M0 0l-15-5M0 15l15 15M0 15l-15 15"
         id="path22" />
    </g>
  </g>
  <g
     transform="matrix(.3 0 0 .3 95 48)"
     id="g34">
    <circle
       cy="-15"
       r="10"
       fill="#f44333"
       id="circle28" />
    <g
       stroke="#f44333"
       stroke-linecap="round"
       stroke-width="4"
       id="g32">
      <path
         d="M0-15v30M0 0l15-5M0 0l-15-5M0 15l15 15M0 15l-15 15"
         id="path30" />
    </g>
  </g>
  <g
     transform="matrix(.3 0 0 .3 115 13.359)"
     id="g42">
    <circle
       cy="-15"
       r="10"
       fill="#f44333"
       id="circle36" />
    <g
       stroke="#f44333"
       stroke-linecap="round"
       stroke-width="4"
       id="g40">
      <path
         d="M0-15v30M0 0l15-5M0 0l-15-5M0 15l15 15M0 15l-15 15"
         id="path38" />
    </g>
  </g>
  <g
     transform="matrix(.3 0 0 .3 155 13.359)"
     id="g50">
    <circle
       cy="-15"
       r="10"
       fill="#f44333"
       id="circle44" />
    <g
       stroke="#f44333"
       stroke-linecap="round"
       stroke-width="4"
       id="g48">
      <path
         d="M0-15v30M0 0l15-5M0 0l-15-5M0 15l15 15M0 15l-15 15"
         id="path46" />
    </g>
  </g>
  <g
     stroke="#f44333"
     stroke-linecap="round"
     stroke-width=".5"
     id="g318">
    <path
       d="M98 50.7h4M98 49.3h4M105 50.7h4M105 49.3h4M112 50.7h4M112 49.3h4M119 50.7h4M119 49.3h4M126 50.7h4M126 49.3h4M133 50.7h4M133 49.3h4M140 50.7h4M140 49.3h4M147 50.7h4M147 49.3h4"
       id="path52" />
    <g
       id="g56">
      <path
         d="M154 50.7h4M154 49.3h4"
         id="path54" />
    </g>
    <g
       id="g60">
      <path
         d="M161 50.7h4M161 49.3h4"
         id="path58" />
    </g>
    <g
       id="g64">
      <path
         d="M168 50.7h4M168 49.3h4"
         id="path62" />
    </g>
    <g
       id="g84">
      <path
         d="M120.606 76.082l2-3.464M119.394 75.382l2-3.464M124.106 70.02l2-3.464M122.894 69.32l2-3.464M127.606 63.958l2-3.464M126.394 63.258l2-3.464M131.106 57.896l2-3.465M129.894 57.196l2-3.465M134.606 51.833l2-3.464M133.394 51.133l2-3.464"
         id="path66" />
      <g
         id="g70">
        <path
           d="M138.106 45.771l2-3.464M136.894 45.071l2-3.464"
           id="path68" />
      </g>
      <g
         id="g74">
        <path
           d="M141.606 39.709l2-3.464M140.394 39.009l2-3.464"
           id="path72" />
      </g>
      <g
         id="g78">
        <path
           d="M145.106 33.647l2-3.464M143.894 32.947l2-3.464"
           id="path76" />
      </g>
      <g
         id="g82">
        <path
           d="M148.606 27.585l2-3.464M147.394 26.885l2-3.464"
           id="path80" />
      </g>
    </g>
    <g
       id="g104">
      <path
         d="M119.394 24.618l2 3.464M120.606 23.918l2 3.464M122.894 30.68l2 3.464M124.106 29.98l2 3.464M126.394 36.742l2 3.464M127.606 36.042l2 3.464M129.894 42.804l2 3.465M131.106 42.104l2 3.465M133.394 48.867l2 3.464M134.606 48.167l2 3.464"
         id="path86" />
      <g
         id="g90">
        <path
           d="M136.894 54.929l2 3.464M138.106 54.229l2 3.464"
           id="path88" />
      </g>
      <g
         id="g94">
        <path
           d="M140.394 60.991l2 3.464M141.606 60.291l2 3.464"
           id="path92" />
      </g>
      <g
         id="g98">
        <path
           d="M143.894 67.053l2 3.464M145.106 66.353l2 3.464"
           id="path96" />
      </g>
      <g
         id="g102">
        <path
           d="M147.394 73.115l2 3.464M148.606 72.415l2 3.464"
           id="path100" />
      </g>
    </g>
    <g
       id="g124">
      <path
         d="M120.918 19.606l3.464 2M121.618 18.394l3.464 2M126.98 23.106l3.464 2M127.68 21.894l3.464 2M133.042 26.606l3.464 2M133.742 25.394l3.464 2M139.104 30.106l3.465 2M139.804 28.894l3.465 2"
         id="path106" />
      <g
         id="g110">
        <path
           d="M145.167 33.606l3.464 2M145.867 32.394l3.464 2"
           id="path108" />
      </g>
      <g
         id="g114">
        <path
           d="M151.229 37.106l3.464 2M151.929 35.894l3.464 2"
           id="path112" />
      </g>
      <g
         id="g118">
        <path
           d="M157.291 40.606l3.464 2M157.991 39.394l3.464 2"
           id="path116" />
      </g>
      <g
         id="g122">
        <path
           d="M163.353 44.106l3.464 2M164.053 42.894l3.464 2"
           id="path120" />
      </g>
    </g>
    <g
       id="g144">
      <path
         d="M102.918 58.606l3.464 2M103.618 57.394l3.464 2M108.98 62.106l3.464 2M109.68 60.894l3.464 2M115.042 65.606l3.464 2M115.742 64.394l3.464 2M121.104 69.106l3.465 2M121.804 67.894l3.465 2"
         id="path126" />
      <g
         id="g130">
        <path
           d="M127.167 72.606l3.464 2M127.867 71.394l3.464 2"
           id="path128" />
      </g>
      <g
         id="g134">
        <path
           d="M133.229 76.106l3.464 2M133.929 74.894l3.464 2"
           id="path132" />
      </g>
      <g
         id="g138">
        <path
           d="M139.291 79.606l3.464 2M139.991 78.394l3.464 2"
           id="path136" />
      </g>
      <g
         id="g142">
        <path
           d="M145.353 83.106l3.464 2M146.053 81.894l3.464 2"
           id="path140" />
      </g>
    </g>
    <g
       id="g164">
      <path
         d="M114.3 21v4M115.7 21v4M114.3 28v4M115.7 28v4M114.3 35v4M115.7 35v4M114.3 42v4M115.7 42v4"
         id="path146" />
      <g
         id="g150">
        <path
           d="M114.3 49v4M115.7 49v4"
           id="path148" />
      </g>
      <g
         id="g154">
        <path
           d="M114.3 56v4M115.7 56v4"
           id="path152" />
      </g>
      <g
         id="g158">
        <path
           d="M114.3 63v4M115.7 63v4"
           id="path156" />
      </g>
      <g
         id="g162">
        <path
           d="M114.3 70v4M115.7 70v4"
           id="path160" />
      </g>
    </g>
    <g
       id="g184">
      <path
         d="M154.3 21v4M155.7 21v4M154.3 28v4M155.7 28v4M154.3 35v4M155.7 35v4M154.3 42v4M155.7 42v4"
         id="path166" />
      <g
         id="g170">
        <path
           d="M154.3 49v4M155.7 49v4"
           id="path168" />
      </g>
      <g
         id="g174">
        <path
           d="M154.3 56v4M155.7 56v4"
           id="path172" />
      </g>
      <g
         id="g178">
        <path
           d="M154.3 63v4M155.7 63v4"
           id="path176" />
      </g>
      <g
         id="g182">
        <path
           d="M154.3 70v4M155.7 70v4"
           id="path180" />
      </g>
    </g>
    <g
       id="g204">
      <path
         d="M101.618 44.606l3.464-2M100.918 43.394l3.464-2M107.68 41.106l3.464-2M106.98 39.894l3.464-2M113.742 37.606l3.464-2M113.042 36.394l3.464-2M119.804 34.106l3.465-2M119.104 32.894l3.465-2"
         id="path186" />
      <g
         id="g190">
        <path
           d="M125.867 30.606l3.464-2M125.167 29.394l3.464-2"
           id="path188" />
      </g>
      <g
         id="g194">
        <path
           d="M131.929 27.106l3.464-2M131.229 25.894l3.464-2"
           id="path192" />
      </g>
      <g
         id="g198">
        <path
           d="M137.991 23.606l3.464-2M137.291 22.394l3.464-2"
           id="path196" />
      </g>
      <g
         id="g202">
        <path
           d="M144.053 20.106l3.464-2M143.353 18.894l3.464-2"
           id="path200" />
      </g>
    </g>
    <g
       id="g224">
      <path
         d="M122.618 81.606l3.464-2M121.918 80.394l3.464-2M128.68 78.106l3.464-2M127.98 76.894l3.464-2M134.742 74.606l3.464-2M134.042 73.394l3.464-2M140.804 71.106l3.465-2M140.104 69.894l3.465-2"
         id="path206" />
      <g
         id="g210">
        <path
           d="M146.867 67.606l3.464-2M146.167 66.394l3.464-2"
           id="path208" />
      </g>
      <g
         id="g214">
        <path
           d="M152.929 64.106l3.464-2M152.229 62.894l3.464-2"
           id="path212" />
      </g>
      <g
         id="g218">
        <path
           d="M158.991 60.606l3.464-2M158.291 59.394l3.464-2"
           id="path216" />
      </g>
      <g
         id="g222">
        <path
           d="M165.053 57.106l3.464-2M164.353 55.894l3.464-2"
           id="path220" />
      </g>
    </g>
    <g
       id="g244">
      <path
         d="M122.618 81.606l3.464-2M121.918 80.394l3.464-2M128.68 78.106l3.464-2M127.98 76.894l3.464-2M134.742 74.606l3.464-2M134.042 73.394l3.464-2M140.804 71.106l3.465-2M140.104 69.894l3.465-2"
         id="path226" />
      <g
         id="g230">
        <path
           d="M146.867 67.606l3.464-2M146.167 66.394l3.464-2"
           id="path228" />
      </g>
      <g
         id="g234">
        <path
           d="M152.929 64.106l3.464-2M152.229 62.894l3.464-2"
           id="path232" />
      </g>
      <g
         id="g238">
        <path
           d="M158.991 60.606l3.464-2M158.291 59.394l3.464-2"
           id="path236" />
      </g>
      <g
         id="g242">
        <path
           d="M165.053 57.106l3.464-2M164.353 55.894l3.464-2"
           id="path240" />
      </g>
    </g>
    <g
       id="g256">
      <path
         d="M123 12.7h4M123 11.3h4M130 12.7h4M130 11.3h4"
         id="path246" />
      <g
         id="g250">
        <path
           d="M137 12.7h4M137 11.3h4"
           id="path248" />
      </g>
      <g
         id="g254">
        <path
           d="M144 12.7h4M144 11.3h4"
           id="path252" />
      </g>
    </g>
    <g
       id="g268">
      <path
         d="M123 90.7h4M123 89.3h4M130 90.7h4M130 89.3h4"
         id="path258" />
      <g
         id="g262">
        <path
           d="M137 90.7h4M137 89.3h4"
           id="path260" />
      </g>
      <g
         id="g266">
        <path
           d="M144 90.7h4M144 89.3h4"
           id="path264" />
      </g>
    </g>
    <g
       id="g280">
      <path
         d="M95.394 58.618l2 3.464M96.606 57.918l2 3.464M98.894 64.68l2 3.464M100.106 63.98l2 3.464"
         id="path270" />
      <g
         id="g274">
        <path
           d="M102.394 70.742l2 3.464M103.606 70.042l2 3.464"
           id="path272" />
      </g>
      <g
         id="g278">
        <path
           d="M105.894 76.804l2 3.465M107.106 76.104l2 3.465"
           id="path276" />
      </g>
    </g>
    <g
       id="g292">
      <path
         d="M159.394 18.618l2 3.464M160.606 17.918l2 3.464M162.894 24.68l2 3.464M164.106 23.98l2 3.464"
         id="path282" />
      <g
         id="g286">
        <path
           d="M166.394 30.742l2 3.464M167.606 30.042l2 3.464"
           id="path284" />
      </g>
      <g
         id="g290">
        <path
           d="M169.894 36.804l2 3.465M171.106 36.104l2 3.465"
           id="path288" />
      </g>
    </g>
    <g
       id="g304">
      <path
         d="M109.394 17.918l-2 3.464M110.606 18.618l-2 3.464M105.894 23.98l-2 3.464M107.106 24.68l-2 3.464"
         id="path294" />
      <g
         id="g298">
        <path
           d="M102.394 30.042l-2 3.464M103.606 30.742l-2 3.464"
           id="path296" />
      </g>
      <g
         id="g302">
        <path
           d="M98.894 36.104l-2 3.465M100.106 36.804l-2 3.465"
           id="path300" />
      </g>
    </g>
    <g
       id="g316">
      <path
         d="M173.394 57.918l-2 3.464M174.606 58.618l-2 3.464M169.894 63.98l-2 3.464M171.106 64.68l-2 3.464"
         id="path306" />
      <g
         id="g310">
        <path
           d="M166.394 70.042l-2 3.464M167.606 70.742l-2 3.464"
           id="path308" />
      </g>
      <g
         id="g314">
        <path
           d="M162.894 76.104l-2 3.465M164.106 76.804l-2 3.465"
           id="path312" />
      </g>
    </g>
  </g>
  <g
     stroke="#f44333"
     stroke-linecap="square"
     stroke-width=".8"
     id="g322">
    <path
       d="M150.5 31.5v13h9v-9l-4-4h-5zM159.5 35.5h-4M155.5 31.5v4M152.5 34.5h3M152.5 36.7h5M152.5 38.7h5M152.5 40.7h5M152.5 42.7h5"
       id="path320" />
  </g>
  <g
     stroke="#f44333"
     stroke-linecap="square"
     stroke-width=".8"
     id="g326">
    <path
       d="M110.5 43.5v13h9v-9l-4-4h-5zM119.5 47.5h-4M115.5 43.5v4M112.5 46.5h3M112.5 48.7h5M112.5 50.7h5M112.5 52.7h5M112.5 54.7h5"
       id="path324" />
  </g>
  <g
     stroke="#f44333"
     stroke-linecap="square"
     stroke-width=".8"
     id="g330">
    <path
       d="M130.5 83.5v13h9v-9l-4-4h-5zM139.5 87.5h-4M135.5 83.5v4M132.5 86.5h3M132.5 88.7h5M132.5 90.7h5M132.5 92.7h5M132.5 94.7h5"
       id="path328" />
  </g>
  <g
     stroke="#f44333"
     stroke-linecap="square"
     stroke-width=".8"
     id="g334">
    <path
       stroke-width=".96"
       d="M4.6 12.2v15.6h10.8V17l-4.8-4.8h-6zM15.4 17h-4.8M10.6 12.2V17M7 15.8h3.6M7 18.44h6M7 20.84h6M7 23.24h6M7 25.64h6"
       id="path332" />
  </g>
  <g
     stroke="#f44333"
     stroke-linecap="square"
     stroke-width=".8"
     id="g338">
    <path
       stroke-width=".96"
       d="M34.6 7.2v15.6h10.8V12l-4.8-4.8h-6zM45.4 12h-4.8M40.6 7.2V12M37 10.8h3.6M37 13.44h6M37 15.84h6M37 18.24h6M37 20.64h6"
       id="path336" />
  </g>
  <g
     stroke="#f44333"
     stroke-linecap="square"
     stroke-width=".8"
     id="g342">
    <path
       stroke-width=".96"
       d="M64.6 22.2v15.6h10.8V27l-4.8-4.8h-6zM75.4 27h-4.8M70.6 22.2V27M67 25.8h3.6M67 28.44h6M67 30.84h6M67 33.24h6M67 35.64h6"
       id="path340" />
  </g>
  <g
     stroke="#f44333"
     stroke-linecap="square"
     stroke-width=".8"
     id="g346">
    <path
       stroke-width=".96"
       d="M44.6 42.2v15.6h10.8V47l-4.8-4.8h-6zM55.4 47h-4.8M50.6 42.2V47M47 45.8h3.6M47 48.44h6M47 50.84h6M47 53.24h6M47 55.64h6"
       id="path344" />
  </g>
  <g
     stroke="#f44333"
     stroke-linecap="square"
     stroke-width=".8"
     id="g350">
    <path
       stroke-width=".96"
       d="M74.6 52.2v15.6h10.8V57l-4.8-4.8h-6zM85.4 57h-4.8M80.6 52.2V57M77 55.8h3.6M77 58.44h6M77 60.84h6M77 63.24h6M77 65.64h6"
       id="path348" />
  </g>
  <g
     id="g356">
    <g
       stroke="#f44333"
       stroke-linecap="square"
       stroke-width=".8"
       id="g354">
      <path
         stroke-width=".96"
         d="M14.6 62.2v15.6h10.8V67l-4.8-4.8h-6zM25.4 67h-4.8M20.6 62.2V67M17 65.8h3.6M17 68.44h6M17 70.84h6M17 73.24h6M17 75.64h6"
         id="path352" />
    </g>
  </g>
  <g
     id="g362">
    <g
       stroke="#f44333"
       stroke-linecap="square"
       stroke-width=".8"
       id="g360">
      <path
         stroke-width=".96"
         d="M54.6 72.2v15.6h10.8V77l-4.8-4.8h-6zM65.4 77h-4.8M60.6 72.2V77M57 75.8h3.6M57 78.44h6M57 80.84h6M57 83.24h6M57 85.64h6"
         id="path358" />
    </g>
  </g>
  <g
     id="g368">
    <g
       stroke="#f44333"
       stroke-linecap="square"
       stroke-width=".8"
       id="g366">
      <path
         stroke-width=".96"
         d="M194.6 2.2v15.6h10.8V7l-4.8-4.8h-6zM205.4 7h-4.8M200.6 2.2V7M197 5.8h3.6M197 8.44h6M197 10.84h6M197 13.24h6M197 15.64h6"
         id="path364" />
    </g>
  </g>
  <g
     id="g374">
    <g
       stroke="#f44333"
       stroke-linecap="square"
       stroke-width=".8"
       id="g372">
      <path
         stroke-width=".96"
         d="M189.6 32.2v15.6h10.8V37l-4.8-4.8h-6zM200.4 37h-4.8M195.6 32.2V37M192 35.8h3.6M192 38.44h6M192 40.84h6M192 43.24h6M192 45.64h6"
         id="path370" />
    </g>
  </g>
  <g
     id="g380">
    <g
       stroke="#f44333"
       stroke-linecap="square"
       stroke-width=".8"
       id="g378">
      <path
         stroke-width=".96"
         d="M204.6 62.2v15.6h10.8V67l-4.8-4.8h-6zM215.4 67h-4.8M210.6 62.2V67M207 65.8h3.6M207 68.44h6M207 70.84h6M207 73.24h6M207 75.64h6"
         id="path376" />
    </g>
  </g>
  <g
     id="g386">
    <g
       stroke="#f44333"
       stroke-linecap="square"
       stroke-width=".8"
       id="g384">
      <path
         stroke-width=".96"
         d="M224.6 42.2v15.6h10.8V47l-4.8-4.8h-6zM235.4 47h-4.8M230.6 42.2V47M227 45.8h3.6M227 48.44h6M227 50.84h6M227 53.24h6M227 55.64h6"
         id="path382" />
    </g>
  </g>
  <g
     id="g392">
    <g
       stroke="#f44333"
       stroke-linecap="square"
       stroke-width=".8"
       id="g390">
      <path
         stroke-width=".96"
         d="M234.6 72.2v15.6h10.8V77l-4.8-4.8h-6zM245.4 77h-4.8M240.6 72.2V77M237 75.8h3.6M237 78.44h6M237 80.84h6M237 83.24h6M237 85.64h6"
         id="path388" />
    </g>
  </g>
  <g
     id="g398">
    <g
       stroke="#f44333"
       stroke-linecap="square"
       stroke-width=".8"
       id="g396">
      <path
         stroke-width=".96"
         d="M244.6 12.2v15.6h10.8V17l-4.8-4.8h-6zM255.4 17h-4.8M250.6 12.2V17M247 15.8h3.6M247 18.44h6M247 20.84h6M247 23.24h6M247 25.64h6"
         id="path394" />
    </g>
  </g>
  <g
     id="g404">
    <g
       stroke="#f44333"
       stroke-linecap="square"
       stroke-width=".8"
       id="g402">
      <path
         stroke-width=".96"
         d="M254.6 52.2v15.6h10.8V57l-4.8-4.8h-6zM265.4 57h-4.8M260.6 52.2V57M257 55.8h3.6M257 58.44h6M257 60.84h6M257 63.24h6M257 65.64h6"
         id="path400" />
    </g>
  </g>
</svg>
